%YAML 1.1
%TAG !u! tag:unity3d.com,2011:
--- !u!1045 &1
EditorBuildSettings:
  m_ObjectHideFlags: 0
  serializedVersion: 2
  m_Scenes:
  - enabled: 1
    path: Assets/Scenes/MainMenu.unity
    guid: f347964dae4fadb99a4e07cd0043ffdb
  - enabled: 1
    path: Assets/Scenes/SetGame.unity
    guid: 4e934b36312a59bb9b72cbff048ca810
  - enabled: 1
    path: Assets/Scenes/GameScene.unity
    guid: fce43b9d01c4e4bb98e890a057e4f898
  m_configObjects: {}
